740693 24794 509
69920 876823 525
732545 472989 509
55716 746786 509
59828 241026 443
399068 605539 470
81501 658055 509
797420 298227 509
454165 457294 356
594294 17719 470
720988 264138 509
821114 725804 468
496626 303254 449
89082 645741 509
641275 447512 509
752095 914059 525
286467 320968 389
422745 212220 449
966409 157816 525
369298 870921 525
8991 695649 509
526571 843805 525
816104 947993 525
360148 357262 379
118097 705287 509
141335 736393 509
519384 82854 470
332022 609849 470
862364 44916 525
80973 454110 449
144597 95079 375
784797 59878 509
711585 882779 525
989076 829323 525
760115 34894 509
412999 357837 449
901748 968117 507
484162 617816 470
326293 973751 525
979295 342920 525
937761 903111 476
539167 967298 525
254412 743480 509
692573 301789 509
469923 886761 525
168234 203578 365
898940 21538 525
138881 567002 470
37780 921885 525
556578 820539 509
420472 47814 449
903620 311807 525
975983 783271 525
314451 823916 509
627289 914196 525
368021 825483 509
651002 771979 504
593921 139711 470
585620 678787 509
124963 92391 354
595955 143614 470
146181 569730 470
590364 69819 470
274584 619329 470
903236 850536 445
418053 420398 343
817671 842485 525
826988 312664 509
544903 880844 525
139409 865047 525
981389 275028 525
300955 839458 525
492846 49866 449
42566 541185 470
823847 834960 419
897667 88684 525
653730 1906 509
22082 90413 351
635078 754935 504
133422 304414 443
404055 461597 449
977562 443351 525
195125 200379 360
730308 259848 509
445884 199699 449
261832 339487 407
300967 653898 509
47034 878536 525
407484 244830 441
505214 352331 449
557264 706320 509
277218 85027 443
553978 133521 470
10597 799248 509
240618 471362 449
842665 917912 476
764421 390675 509
158473 793231 509
558569 949236 525
779737 739523 468
539491 710597 509
693274 658210 442
13863 227102 386
781448 853402 525
697124 189954 509
556478 131722 470
782044 159382 509
466445 102383 449
50761 973454 525
583322 357869 470
463967 955292 525
74602 930585 525
405001 719451 509
11172 526808 470
14840 384591 443
328113 356571 441
640890 390985 509
725424 663951 504
674339 375680 509
890210 435391 525
167917 887505 525
352861 214569 443
975817 978883 383
734970 501895 509
352562 964317 525
707521 194886 509
532866 172488 470
65958 609147 470
514889 141247 470
19867 768852 509
117358 939761 525
623845 570569 447
4944 904760 525
471139 327326 449
573189 664043 509
498761 923994 525
631490 777303 504
235338 634316 509
71002 822275 509
599257 419743 470
540694 186507 470
422430 796710 509
751579 711658 424
181896 518175 470
202303 671646 509
812966 124468 509
269190 607865 470
677528 612001 509
49278 78215 351
64918 404427 443
684788 130094 509
703147 101407 509
218884 195878 386
365540 823872 509
554734 876852 525
510544 33584 449
511247 833268 509
805818 570555 509
769128 858478 525
547427 82633 470
766227 385580 509
254842 305186 407
516275 430129 470
612160 522611 452
166687 149548 383
242978 411524 449
886242 828574 525
967336 71815 525
107802 501550 449
613661 934007 525
152948 732206 509
878951 460273 525
250290 486778 449
109016 351576 443
90875 949356 525
85338 740282 509
47241 264809 443
179023 466844 449
661694 337642 509
783909 998947 525
948109 626680 525
920356 455397 525
78378 87684 338
992862 120070 525
568232 805179 509
680875 626294 509
697484 281457 509
933566 835969 525
410511 108296 449
379761 623244 470
554340 524691 452
606658 44612 470
111291 872186 525
595335 530258 452
765969 607753 509
215962 885360 525
382512 478014 449
44797 999775 525
362651 40038 443
347652 142408 443
221421 39209 386
44540 569252 470
834519 161364 509
861695 567949 525
750037 919703 525
124934 156302 383
382069 800470 509
58962 454112 449
469554 312218 449
157546 187890 370
431299 492473 444
920599 83182 525
549875 606798 434
502113 702020 509
354506 91539 443
267720 698351 509
218596 25937 386
577035 733569 509
935793 962746 507
295254 739929 509
591185 80399 470
644319 527843 509
685852 290680 509
935953 565304 525
479007 403551 449
141975 994417 525
291780 899010 525
630759 126352 509
138749 738241 509
419478 671019 509
436936 428544 387
945314 497187 525
375280 260081 441
842427 929057 476
525768 19421 470
147524 107624 375
192090 469059 449
81865 941162 525
749620 688757 504
175215 704125 509
751001 594167 509
395297 380574 436
447311 392780 449
558 479465 449
69607 105112 351
583244 246057 470
432596 451115 400
936464 506410 525
171397 343911 443
967192 649957 525
183380 409549 443
88856 679971 509
466159 311860 449
705657 666431 504
812567 716887 468
941328 826365 525
185355 776345 509
783186 158802 509
492659 519148 470
103561 170506 383
581527 780465 509
779581 906322 525
909995 757634 525
143915 438134 449
570827 804975 509
556320 67000 470
864331 190502 525
47609 470684 449
